Project Draft
…
Ex. 3.

We will now calculate summary for male and female patients.

First of all, we will mutate sex variable.

heart <- heart %>%
mutate(sex = case_when(
  sex== 0 ~ "Female",
  sex == 1 ~ "Male") 
)
  
heart

## # A tibble: 303 x 14
##      age sex      cp trestbps  chol   fbs restecg thalach exang oldpeak slope
##    <dbl> <chr> <dbl>    <dbl> <dbl> <dbl>   <dbl>   <dbl> <dbl>   <dbl> <dbl>
##  1    63 Male      3      145   233     1       0     150     0     2.3     0
##  2    37 Male      2      130   250     0       1     187     0     3.5     0
##  3    41 Fema     1      130   204     0       0     172     0     1.4     2
##  4    56 Male      1      120   236     0       1     178     0     0.8     2
##  5    57 Fema     0      120   354     0       1     163     1     0.6     2
##  6    57 Male      0      140   192     0       1     148     0     0.4     1
##  7    56 Fema     1      140   294     0       0     153     0     1.3     1
##  8    44 Male      1      120   263     0       1     173     0     0       2
##  9    52 Male      2      172   199     1       1     162     0     0.5     2
## 10    57 Male      2      150   168     0       1     174     0     1.6     2
## #  with 293 more rows, and 3 more variables: ca <dbl>, thal <dbl>,
## #   target <dbl>
…
Generally, the blood cholesterol` in female is low as their age increases, but in case of male, their cholesterol level generally rises with the increase in their age.

Ex. 5

Well count the cases of excercise-induced angina among heart patients.

Mutating the variable first.

## # A tibble: 303 x 14
##      age sex      cp trestbps  chol   fbs restecg thalach exang oldpeak slope
##    <dbl> <chr> <dbl>    <dbl> <dbl> <dbl>   <dbl>   <dbl> <chr>   <dbl> <dbl>
##  1    63 Male      3      145   233     1       0     150 NO        2.3     0
##  2    37 Male      2      130   250     0       1     187 NO        3.5     0
##  3    41 Fema     1      130   204     0       0     172 NO        1.4     2
##  4    56 Male      1      120   236     0       1     178 NO        0.8     2
##  5    57 Fema     0      120   354     0       1     163 Yes       0.6     2
##  6    57 Male      0      140   192     0       1     148 NO        0.4     1
##  7    56 Fema     1      140   294     0       0     153 NO        1.3     1
##  8    44 Male      1      120   263     0       1     173 NO        0       2
##  9    52 Male      2      172   199     1       1     162 NO        0.5     2
## 10    57 Male      2      150   168     0       1     174 NO        1.6     2
## #  with 293 more rows, and 3 more variables: ca <dbl>, thal <dbl>,
## #   target <dbl>
…
